{
    "id":"8ba9c368-7daf-43db-980a-74c230daf402",
    "schema":"https://metadata.datadrivendiscovery.org/schemas/v0/pipeline.json",
    "created":"2019-06-20T05:59:04.149822Z",
    "inputs":[
        {
            "name":"input dataset"
        }
    ],
    "outputs":[
        {
            "data":"steps.16.produce",
            "name":"predictions of input dataset"
        }
    ],
    "steps":[
        {
            "type":"PRIMITIVE",
            "primitive":{
                "id":"DSBox-splitter",
                "version":"1.5.3",
                "python_path":"d3m.primitives.data_preprocessing.splitter.DSBOX",
                "name":"DSBox Splitter",
                "digest":"75793a0ddd202eb49093c2bb8fc5546145bc06251a7f06b66a867948876b9ef7"
            },
            "arguments":{
                "inputs":{
                    "type":"CONTAINER",
                    "data":"inputs.0"
                }
            },
            "outputs":[
                {
                    "id":"produce"
                }
            ],
            "hyperparams":{
                "threshold_column_length":{
                    "type":"VALUE",
                    "data":300
                },
                "threshold_row_length":{
                    "type":"VALUE",
                    "data":100000
                },
                "further_reduce_threshold_column_length":{
                    "type":"VALUE",
                    "data":200
                },
                "further_reduce_ratio":{
                    "type":"VALUE",
                    "data":0.5
                }
            }
        },
        {
            "type":"PRIMITIVE",
            "primitive":{
                "id":"f31f8c1f-d1c5-43e5-a4b2-2ae4a761ef2e",
                "version":"0.2.0",
                "python_path":"d3m.primitives.data_transformation.denormalize.Common",
                "name":"Denormalize datasets",
                "digest":"32dfc6dbf98da7fb546f7e33eb2e2023a6054e5797572ababe06e9f9623cffca"
            },
            "arguments":{
                "inputs":{
                    "type":"CONTAINER",
                    "data":"steps.0.produce"
                }
            },
            "outputs":[
                {
                    "id":"produce"
                }
            ],
            "hyperparams":{
                "starting_resource":{
                    "type":"VALUE",
                    "data":null
                },
                "recursive":{
                    "type":"VALUE",
                    "data":true
                },
                "many_to_many":{
                    "type":"VALUE",
                    "data":false
                },
                "discard_not_joined_tabular_resources":{
                    "type":"VALUE",
                    "data":false
                }
            }
        },
        {
            "type":"PRIMITIVE",
            "primitive":{
                "id":"DSBox-splitter",
                "version":"1.5.3",
                "python_path":"d3m.primitives.data_preprocessing.splitter.DSBOX",
                "name":"DSBox Splitter",
                "digest":"75793a0ddd202eb49093c2bb8fc5546145bc06251a7f06b66a867948876b9ef7"
            },
            "arguments":{
                "inputs":{
                    "type":"CONTAINER",
                    "data":"steps.1.produce"
                }
            },
            "outputs":[
                {
                    "id":"produce"
                }
            ],
            "hyperparams":{
                "threshold_column_length":{
                    "type":"VALUE",
                    "data":300
                },
                "threshold_row_length":{
                    "type":"VALUE",
                    "data":100000
                },
                "further_reduce_threshold_column_length":{
                    "type":"VALUE",
                    "data":200
                },
                "further_reduce_ratio":{
                    "type":"VALUE",
                    "data":0.5
                }
            }
        },
        {
            "type":"PRIMITIVE",
            "primitive":{
                "id":"f31f8c1f-d1c5-43e5-a4b2-2ae4a761ef2e",
                "version":"0.2.0",
                "python_path":"d3m.primitives.data_transformation.denormalize.Common",
                "name":"Denormalize datasets",
                "digest":"32dfc6dbf98da7fb546f7e33eb2e2023a6054e5797572ababe06e9f9623cffca"
            },
            "arguments":{
                "inputs":{
                    "type":"CONTAINER",
                    "data":"steps.2.produce"
                }
            },
            "outputs":[
                {
                    "id":"produce"
                }
            ],
            "hyperparams":{
                "starting_resource":{
                    "type":"VALUE",
                    "data":null
                },
                "recursive":{
                    "type":"VALUE",
                    "data":true
                },
                "many_to_many":{
                    "type":"VALUE",
                    "data":false
                },
                "discard_not_joined_tabular_resources":{
                    "type":"VALUE",
                    "data":false
                }
            }
        },
        {
            "type":"PRIMITIVE",
            "primitive":{
                "id":"DSBox-splitter",
                "version":"1.5.3",
                "python_path":"d3m.primitives.data_preprocessing.splitter.DSBOX",
                "name":"DSBox Splitter",
                "digest":"75793a0ddd202eb49093c2bb8fc5546145bc06251a7f06b66a867948876b9ef7"
            },
            "arguments":{
                "inputs":{
                    "type":"CONTAINER",
                    "data":"steps.3.produce"
                }
            },
            "outputs":[
                {
                    "id":"produce"
                }
            ],
            "hyperparams":{
                "threshold_column_length":{
                    "type":"VALUE",
                    "data":300
                },
                "threshold_row_length":{
                    "type":"VALUE",
                    "data":100000
                },
                "further_reduce_threshold_column_length":{
                    "type":"VALUE",
                    "data":200
                },
                "further_reduce_ratio":{
                    "type":"VALUE",
                    "data":0.5
                }
            }
        },
        {
            "type":"PRIMITIVE",
            "primitive":{
                "id":"f31f8c1f-d1c5-43e5-a4b2-2ae4a761ef2e",
                "version":"0.2.0",
                "python_path":"d3m.primitives.data_transformation.denormalize.Common",
                "name":"Denormalize datasets",
                "digest":"32dfc6dbf98da7fb546f7e33eb2e2023a6054e5797572ababe06e9f9623cffca"
            },
            "arguments":{
                "inputs":{
                    "type":"CONTAINER",
                    "data":"steps.4.produce"
                }
            },
            "outputs":[
                {
                    "id":"produce"
                }
            ],
            "hyperparams":{
                "starting_resource":{
                    "type":"VALUE",
                    "data":null
                },
                "recursive":{
                    "type":"VALUE",
                    "data":true
                },
                "many_to_many":{
                    "type":"VALUE",
                    "data":false
                },
                "discard_not_joined_tabular_resources":{
                    "type":"VALUE",
                    "data":false
                }
            }
        },
        {
            "type":"PRIMITIVE",
            "primitive":{
                "id":"4b42ce1e-9b98-4a25-b68e-fad13311eb65",
                "version":"0.3.0",
                "python_path":"d3m.primitives.data_transformation.dataset_to_dataframe.Common",
                "name":"Extract a DataFrame from a Dataset",
                "digest":"6eb6bb8fc9e865c0ef6c6d4b44834179cde2ad02c336198dca2796b20e4a4812"
            },
            "arguments":{
                "inputs":{
                    "type":"CONTAINER",
                    "data":"steps.5.produce"
                }
            },
            "outputs":[
                {
                    "id":"produce"
                }
            ]
        },
        {
            "type":"PRIMITIVE",
            "primitive":{
                "id":"4503a4c6-42f7-45a1-a1d4-ed69699cf5e1",
                "version":"0.3.0",
                "python_path":"d3m.primitives.data_transformation.extract_columns_by_semantic_types.DataFrameCommon",
                "name":"Extracts columns by semantic type",
                "digest":"32ce1978be72f265cee108fc6183f449eb347ce1800b94b95e2d89603d590fb8"
            },
            "arguments":{
                "inputs":{
                    "type":"CONTAINER",
                    "data":"steps.6.produce"
                }
            },
            "outputs":[
                {
                    "id":"produce"
                }
            ],
            "hyperparams":{
                "semantic_types":{
                    "type":"VALUE",
                    "data":[
                        "https://metadata.datadrivendiscovery.org/types/PrimaryKey",
                        "https://metadata.datadrivendiscovery.org/types/Attribute"
                    ]
                }
            }
        },
        {
            "type":"PRIMITIVE",
            "primitive":{
                "id":"b2612849-39e4-33ce-bfda-24f3e2cb1e93",
                "version":"1.5.3",
                "python_path":"d3m.primitives.schema_discovery.profiler.DSBOX",
                "name":"DSBox Profiler",
                "digest":"ab952cc58ebb59498eb23ac24969463e75a53f7c0dfecbf4bb5dfb5910a8e1a8"
            },
            "arguments":{
                "inputs":{
                    "type":"CONTAINER",
                    "data":"steps.7.produce"
                }
            },
            "outputs":[
                {
                    "id":"produce"
                }
            ]
        },
        {
            "type":"PRIMITIVE",
            "primitive":{
                "id":"dsbox-featurizer-do-nothing",
                "version":"1.5.3",
                "python_path":"d3m.primitives.data_preprocessing.do_nothing.DSBOX",
                "name":"DSBox do-nothing primitive",
                "digest":"5c9b1d1031286e7632f6c296835844c1c15c6f4054162bd95a81ae52fce8dc7c"
            },
            "arguments":{
                "inputs":{
                    "type":"CONTAINER",
                    "data":"steps.8.produce"
                }
            },
            "outputs":[
                {
                    "id":"produce"
                }
            ]
        },
        {
            "type":"PRIMITIVE",
            "primitive":{
                "id":"dsbox-multi-table-feature-labler",
                "version":"1.5.3",
                "python_path":"d3m.primitives.data_cleaning.label_encoder.DSBOX",
                "name":"DSBox feature labeler",
                "digest":"9c8ee8ef221782d6aa9344c042dbdbeb9b196eb22ff929c7e0fee6a6f47e9cbe"
            },
            "arguments":{
                "inputs":{
                    "type":"CONTAINER",
                    "data":"steps.9.produce"
                }
            },
            "outputs":[
                {
                    "id":"produce"
                }
            ]
        },
        {
            "type":"PRIMITIVE",
            "primitive":{
                "id":"7ddf2fd8-2f7f-4e53-96a7-0d9f5aeecf93",
                "version":"1.5.3",
                "python_path":"d3m.primitives.data_transformation.to_numeric.DSBOX",
                "name":"ISI DSBox To Numeric DataFrame",
                "digest":"1e2a7dc4889bd453fa0216571ed6bc605ff02607f194082b2e9e5c41f8272058"
            },
            "arguments":{
                "inputs":{
                    "type":"CONTAINER",
                    "data":"steps.10.produce"
                }
            },
            "outputs":[
                {
                    "id":"produce"
                }
            ]
        },
        {
            "type":"PRIMITIVE",
            "primitive":{
                "id":"7894b699-61e9-3a50-ac9f-9bc510466667",
                "version":"1.5.3",
                "python_path":"d3m.primitives.data_preprocessing.mean_imputation.DSBOX",
                "name":"DSBox Mean Imputer",
                "digest":"1d3085d7935401fd139613d26d8d240b3ad57a5e0ae8f420bcb466962992945e"
            },
            "arguments":{
                "inputs":{
                    "type":"CONTAINER",
                    "data":"steps.11.produce"
                }
            },
            "outputs":[
                {
                    "id":"produce"
                }
            ]
        },
        {
            "type":"PRIMITIVE",
            "primitive":{
                "id":"4503a4c6-42f7-45a1-a1d4-ed69699cf5e1",
                "version":"0.3.0",
                "python_path":"d3m.primitives.data_transformation.extract_columns_by_semantic_types.DataFrameCommon",
                "name":"Extracts columns by semantic type",
                "digest":"32ce1978be72f265cee108fc6183f449eb347ce1800b94b95e2d89603d590fb8"
            },
            "arguments":{
                "inputs":{
                    "type":"CONTAINER",
                    "data":"steps.6.produce"
                }
            },
            "outputs":[
                {
                    "id":"produce"
                }
            ],
            "hyperparams":{
                "semantic_types":{
                    "type":"VALUE",
                    "data":[
                        "https://metadata.datadrivendiscovery.org/types/TrueTarget"
                    ]
                }
            }
        },
        {
            "type":"PRIMITIVE",
            "primitive":{
                "id":"7ddf2fd8-2f7f-4e53-96a7-0d9f5aeecf93",
                "version":"1.5.3",
                "python_path":"d3m.primitives.data_transformation.to_numeric.DSBOX",
                "name":"ISI DSBox To Numeric DataFrame",
                "digest":"1e2a7dc4889bd453fa0216571ed6bc605ff02607f194082b2e9e5c41f8272058"
            },
            "arguments":{
                "inputs":{
                    "type":"CONTAINER",
                    "data":"steps.13.produce"
                }
            },
            "outputs":[
                {
                    "id":"produce"
                }
            ],
            "hyperparams":{
                "drop_non_numeric_columns":{
                    "type":"VALUE",
                    "data":false
                }
            }
        },
        {
            "type":"PRIMITIVE",
            "primitive":{
                "id":"dsbox-featurizer-do-nothing",
                "version":"1.5.3",
                "python_path":"d3m.primitives.data_preprocessing.do_nothing.DSBOX",
                "name":"DSBox do-nothing primitive",
                "digest":"5c9b1d1031286e7632f6c296835844c1c15c6f4054162bd95a81ae52fce8dc7c"
            },
            "arguments":{
                "inputs":{
                    "type":"CONTAINER",
                    "data":"steps.12.produce"
                }
            },
            "outputs":[
                {
                    "id":"produce"
                }
            ]
        },
        {
            "type":"PRIMITIVE",
            "primitive":{
                "id":"01d2c086-91bf-3ca5-b023-5139cf239c77",
                "version":"2019.4.4",
                "python_path":"d3m.primitives.classification.gradient_boosting.SKlearn",
                "name":"sklearn.ensemble.gradient_boosting.GradientBoostingClassifier",
                "digest":"1a7a404af2ec3f7fdb07d46cdfb4e31523a2545fbac904bf5b79386faa75db0b"
            },
            "arguments":{
                "inputs":{
                    "type":"CONTAINER",
                    "data":"steps.15.produce"
                },
                "outputs":{
                    "type":"CONTAINER",
                    "data":"steps.14.produce"
                }
            },
            "outputs":[
                {
                    "id":"produce"
                }
            ],
            "hyperparams":{
                "use_semantic_types":{
                    "type":"VALUE",
                    "data":true
                },
                "return_result":{
                    "type":"VALUE",
                    "data":"new"
                },
                "add_index_columns":{
                    "type":"VALUE",
                    "data":true
                },
                "max_depth":{
                    "type":"VALUE",
                    "data":5
                },
                "n_estimators":{
                    "type":"VALUE",
                    "data":50
                },
                "learning_rate":{
                    "type":"VALUE",
                    "data":0.3
                },
                "min_samples_split":{
                    "type":"VALUE",
                    "data":{
                        "case":"absolute",
                        "value":3
                    }
                },
                "min_samples_leaf":{
                    "type":"VALUE",
                    "data":{
                        "case":"absolute",
                        "value":1
                    }
                }
            }
        }
    ],
    "source":{
        "name":"ISI",
        "contact":"mailto:kyao@isi.edu"
    },
    "name":"classification_with_feature_selection:140082481407968",
    "description":"",
    "digest":"eb47f274665475181316468459948432190b481b8c7dfa8668f772772ffd6af5"
}